{
    "pageviews": {
        "27-09-2021": {
            "home": 15,
            "blog": 4,
            "plugins-simple-blog-js-visitor-js": 6,
            "admin": 6,
            "example": 1,
            "blog-hello-world": 1,
            "_admin": 6,
            "restapi-php": 2,
            "gate-php": 1,
            "default-cms": 1,
            "wp-login-php": 1,
            "blog-test": 1,
            "themes-fresh-css-scss": 3
        }
    },
    "sessions": {
        "27-09-2021": {
            "thgrumgrrdgtokb4qf8egb4ie3": 4,
            "pnfv9cola067280h6h2l0mlttp": 16,
            "krrb6khm415bnkou311t6e0v5n": 2,
            "s47phladgqq8e8do31e62uj3nr": 1,
            "vf3nsv5uc25osm3lh68vkm4f2q": 1,
            "8m81spua6v7p9tk04nka46s3lc": 1,
            "na7el8peje84v2kcaokhb4vpn1": 1,
            "krtr8g7or43nl69r8csou0g20s": 1,
            "tmehnbi32d64m0f75t5gon1f4g": 1,
            "do453pug4eoi78i7b7gnlfjjoc": 1,
            "4c0kvnnid6t1ojnd0vqinupoo0": 1,
            "rcardsqi6ma3ensv11onhcbpmv": 1,
            "lvm19s4okjj45qq1svhemm1mcs": 1,
            "ef6f2fn754la16uireric4846v": 2,
            "5lhm5fakicv0hjva5qsr1munuo": 3,
            "608i3fkkdnqp0aav73l8b3kap7": 1,
            "0vq6vieuo8fegrnsgp6jdeflvt": 9,
            "clmavu6clqpav9g9oiommb3ops": 1
        }
    }
}